<svg xmlns="http://www.w3.org/2000/svg" width="22.628" height="22.628" viewBox="0 0 22.628 22.628">
  <path id="União_3" data-name="União 3" d="M-475-1077v0Zm0,0h0Z" transform="translate(-1076.216 -414.364) rotate(135)" fill="none" stroke="#fff" stroke-linejoin="round" stroke-width="2"/>
</svg>
