<svg id="Grupo_789" data-name="Grupo 789" xmlns="http://www.w3.org/2000/svg" xmlns:xlink="http://www.w3.org/1999/xlink" width="33.966" height="22.645" viewBox="0 0 33.966 22.645">
  <defs>
    <linearGradient id="linear-gradient" x1="0.5" x2="0.5" y2="1" gradientUnits="objectBoundingBox">
      <stop offset="0" stop-color="#f29020"/>
      <stop offset="1" stop-color="#e93f39"/>
    </linearGradient>
  </defs>
  <path id="Caminho_1548" data-name="Caminho 1548" d="M62.474,0H36.056a1.885,1.885,0,0,0-1.887,1.887v19a.242.242,0,0,1-.006.065.075.075,0,0,1-.006.035.182.182,0,0,0-.006.059c0,.018-.006.029-.006.041a.219.219,0,0,1-.012.053.377.377,0,0,1-.012.041c-.006.012-.006.035-.012.053a.374.374,0,0,1-.012.041l-.012.047-.012.041c-.006.018-.012.029-.018.047a.288.288,0,0,1-.018.041.406.406,0,0,0-.018.047.288.288,0,0,1-.018.041.407.407,0,0,0-.018.047l-.018.035a.256.256,0,0,1-.024.041l-.024.035-.024.041-.024.035c-.012.012-.018.029-.029.041l-.024.035-.029.041c-.012.012-.018.024-.029.035s-.018.024-.029.035L33.7,22l-.029.035-.029.029-.035.035-.029.029-.035.035-.029.029-.035.029-.035.029-.041.029-.035.024-.041.029c-.012.006-.024.018-.035.024l-.041.024-.041.024-.041.024-.041.018-.041.024-.041.018L33,22.5l-.041.018-.047.018-.041.012-.047.018-.047.012-.047.012-.047.012-.047.012-.047.006-.047.006-.047.006-.047.006-.047.006H61.53a2.831,2.831,0,0,0,2.83-2.83V1.887A1.885,1.885,0,0,0,62.474,0ZM48.322,18.162a.71.71,0,0,1-.708.708H38.651a.71.71,0,0,1-.708-.708V17.69a.71.71,0,0,1,.708-.708h8.963a.71.71,0,0,1,.708.708Zm0-5.661a.71.71,0,0,1-.708.708H38.651a.71.71,0,0,1-.708-.708v-.472a.71.71,0,0,1,.708-.708h8.963a.71.71,0,0,1,.708.708Zm12.265,5.661a.71.71,0,0,1-.708.708H50.916a.71.71,0,0,1-.708-.708V17.69a.71.71,0,0,1,.708-.708h8.963a.71.71,0,0,1,.708.708Zm0-5.661a.71.71,0,0,1-.708.708H50.916a.71.71,0,0,1-.708-.708v-.472a.71.71,0,0,1,.708-.708h8.963a.71.71,0,0,1,.708.708Zm0-5.661a.71.71,0,0,1-.708.708H38.651a.71.71,0,0,1-.708-.708V4.482a.71.71,0,0,1,.708-.708H59.879a.71.71,0,0,1,.708.708Z" transform="translate(-30.395 0)" fill="url(#linear-gradient)"/>
  <path id="Caminho_1549" data-name="Caminho 1549" d="M17.219,47.1H8.256a.71.71,0,0,0-.708.708v.472a.71.71,0,0,0,.708.708h8.963a.71.71,0,0,0,.708-.708V47.8A.71.71,0,0,0,17.219,47.1Zm0-5.661H8.256a.71.71,0,0,0-.708.708v.472a.71.71,0,0,0,.708.708h8.963a.71.71,0,0,0,.708-.708v-.472A.71.71,0,0,0,17.219,41.435ZM29.484,47.1H20.521a.71.71,0,0,0-.708.708v.472a.71.71,0,0,0,.708.708h8.963a.71.71,0,0,0,.708-.708V47.8A.71.71,0,0,0,29.484,47.1Zm0-5.661H20.521a.71.71,0,0,0-.708.708v.472a.71.71,0,0,0,.708.708h8.963a.71.71,0,0,0,.708-.708v-.472A.71.71,0,0,0,29.484,41.435ZM0,33.887V50.829a1.919,1.919,0,0,0,1.834,1.928,1.886,1.886,0,0,0,1.94-1.834V32H1.887A1.885,1.885,0,0,0,0,33.887Z" transform="translate(0 -30.113)" opacity="0.5" fill="url(#linear-gradient)"/>
</svg>
